{
  "required": true,
  "minVersion": "0.8",
  "package": "net.jolly.entagsound.mixin",
  "compatibilityLevel": "JAVA_16",
  "mixins": [
    "MobEntityMixin"
  ],
  "client": [
  ],
  "injectors": {
    "defaultRequire": 1
  }
}
